Targeting Housing Subsidies
…
        Variable Count Revenue
1  True_Negative  1264       0
2  True_Positive    34  421600
3 False_Negative   124       0
4 False_Positive    20  -57000
                                                                                                                            Description
1 Predicted correctly homeowner would not enter the credit program, no marketing resources were allocated, and no credit was allocated.
2   Predicted correctly homeowner would enter credit program; allocated the marketing resources, and 25% ultimately achieved the credit
3                                                        We predicted that a homeowner would not enter the credit program but they did.
4                                                                Predicted incorrectly that a homeowner would enter the credit program.
# A tibble: 99 × 10
   Count_TN Count_TP Count_FN Count_FP Rate_TP Rate_FP Rate_FN Rate_TN Accuracy
      <int>    <int>    <int>    <int>   <dbl>   <dbl>   <dbl>   <dbl>    <dbl>
 1       17      158        0     1267   1       0.987  0       0.0132    0.121
 2       92      154        4     1192   0.975   0.928  0.0253  0.0717    0.171
 3      229      147       11     1055   0.930   0.822  0.0696  0.178     0.261
 4      440      136       22      844   0.861   0.657  0.139   0.343     0.399
 5      615      124       34      669   0.785   0.521  0.215   0.479     0.512
 6      768      113       45      516   0.715   0.402  0.285   0.598     0.611
 7      885      110       48      399   0.696   0.311  0.304   0.689     0.690
 8      974      104       54      310   0.658   0.241  0.342   0.759     0.748
 9     1023      100       58      261   0.633   0.203  0.367   0.797     0.779
10     1064       99       59      220   0.627   0.171  0.373   0.829     0.807
# ℹ 89 more rows
# ℹ 1 more variable: Threshold <dbl>
…
# A tibble: 99 × 5
   Threshold  Revenue Actual_Churn_Rate Actual_Churn_Revenue_Loss
       <dbl>    <dbl>             <dbl>                     <dbl>
 1      0.01 -1651750            0.0548                      2370
 2      0.02 -1487600            0.0562                      2430
 3      0.03 -1183950            0.0586                      2535
 4      0.04  -719000            0.0624                      2700
 5      0.05  -369050            0.0666                      2880
 6      0.06   -69400            0.0704                      3045
 7      0.07   226850            0.0714                      3090
 8      0.08   406100            0.0735                      3180
 9      0.09   496150            0.0749                      3240
10      0.1    600600            0.0752                      3255
# ℹ 89 more rows
# ℹ 1 more variable: Revenue_Next_Period <dbl>
…
        Variable Count Revenue
1  True_Negative  1260       0
2  True_Positive    31  384400
3 False_Negative   127       0
4 False_Positive    24  -68400
                                                                                                                            Description
1 Predicted correctly homeowner would not enter the credit program, no marketing resources were allocated, and no credit was allocated.
2   Predicted correctly homeowner would enter credit program; allocated the marketing resources, and 25% ultimately achieved the credit
3                                                        We predicted that a homeowner would not enter the credit program but they did.
4                                                                Predicted incorrectly that a homeowner would enter the credit program.
# A tibble: 99 × 10
   Count_TN Count_TP Count_FN Count_FP Rate_TP Rate_FP Rate_FN Rate_TN Accuracy
      <int>    <int>    <int>    <int>   <dbl>   <dbl>   <dbl>   <dbl>    <dbl>
 1       10      157        1     1274   0.994   0.992 0.00633 0.00779    0.116
 2       38      155        3     1246   0.981   0.970 0.0190  0.0296     0.134
 3      110      151        7     1174   0.956   0.914 0.0443  0.0857     0.181
 4      319      146       12      965   0.924   0.752 0.0759  0.248      0.322
 5      521      133       25      763   0.842   0.594 0.158   0.406      0.454
 6      701      116       42      583   0.734   0.454 0.266   0.546      0.567
 7      843      109       49      441   0.690   0.343 0.310   0.657      0.660
 8      953      105       53      331   0.665   0.258 0.335   0.742      0.734
 9     1024      102       56      260   0.646   0.202 0.354   0.798      0.781
10     1074       98       60      210   0.620   0.164 0.380   0.836      0.813
# ℹ 89 more rows
# ℹ 1 more variable: Threshold <dbl>
…
# A tibble: 99 × 5
   Threshold  Revenue Actual_Churn_Rate Actual_Churn_Revenue_Loss
       <dbl>    <dbl>             <dbl>                     <dbl>
 1      0.01 -1684100            0.0551                      2385
 2      0.02 -1629100            0.0558                      2415
 3      0.03 -1473500            0.0572                      2475
 4      0.04  -939850            0.0589                      2550
 5      0.05  -525350            0.0635                      2745
 6      0.06  -223150            0.0693                      3000
 7      0.07    94750            0.0718                      3105
 8      0.08   358650            0.0732                      3165
 9      0.09   523800            0.0742                      3210
10      0.1    616700            0.0756                      3270
# ℹ 89 more rows
# ℹ 1 more variable: Revenue_Next_Period <dbl>
…
